(footprint "MULTILAYER MASK EXPANSION" (version 20220131) (generator pcbnew)
  (layer "F.Cu")
  (tedit 0)
  (descr "A multilayer track and inner-layer tracks with mask expansion")
  (fp_text reference "REF**" (at 0 0) (layer "F.SilkS")
      (effects (font (size 1.27 1.27) (thickness 0.15)))
    (tstamp 27101d2b-1f80-4d40-be5b-78bdcb31c291)
  )
  (fp_text value "MULTILAYER MASK EXPANSION" (at 0 0) (layer "F.SilkS")
      (effects (font (size 1.27 1.27) (thickness 0.15)))
    (tstamp 2fb7c72d-0d63-4df2-879e-15ff023fd1c7)
  )
  (fp_line (start -10 -2) (end 10 -2)
    (stroke (width 0.5) (type solid)) (layer "F.Cu") (tstamp 211ba5f5-6627-4b10-b9d4-2b719a124b05))
  (fp_line (start -10 0) (end 10 0)
    (stroke (width 0.5) (type solid)) (layer "F.Cu") (tstamp cfc3b2fc-1257-4353-9902-85cb6291fba4))
  (fp_line (start -10 2) (end 10 2)
    (stroke (width 0.5) (type solid)) (layer "F.Cu") (tstamp 18282a1a-7012-465b-b257-9994d1176f23))
  (fp_line (start -10 -2) (end 10 -2)
    (stroke (width 0.5) (type solid)) (layer "In1.Cu") (tstamp 6884c1b4-ba74-400a-b15a-2bf546c04e73))
  (fp_line (start -10 0) (end 10 0)
    (stroke (width 0.5) (type solid)) (layer "In1.Cu") (tstamp 97c58935-8898-41d5-af6f-2caecb03bd8b))
  (fp_line (start -10 2) (end 10 2)
    (stroke (width 0.5) (type solid)) (layer "In1.Cu") (tstamp 1e9dcbc0-ed04-41e3-9512-fbb37cd7d179))
  (fp_line (start -10 -2) (end 10 -2)
    (stroke (width 0.5) (type solid)) (layer "In2.Cu") (tstamp 3be5bd27-9454-4a5f-b633-97d435ecd4be))
  (fp_line (start -10 0) (end 10 0)
    (stroke (width 0.5) (type solid)) (layer "In2.Cu") (tstamp d4afa5e8-9757-447e-9a26-66d5df023d71))
  (fp_line (start -10 2) (end 10 2)
    (stroke (width 0.5) (type solid)) (layer "In2.Cu") (tstamp bc0c4d76-7073-443a-8935-0c1edc20eb60))
  (fp_line (start -10 -2) (end 10 -2)
    (stroke (width 0.5) (type solid)) (layer "In3.Cu") (tstamp 7056f785-c3a5-4410-b6bb-e5d4b16e698a))
  (fp_line (start -10 0) (end 10 0)
    (stroke (width 0.5) (type solid)) (layer "In3.Cu") (tstamp 23b2684a-2e45-4486-8777-c94a6d847baf))
  (fp_line (start -10 2) (end 10 2)
    (stroke (width 0.5) (type solid)) (layer "In3.Cu") (tstamp 388986aa-d9a5-485c-b2a5-20f9608e57de))
  (fp_line (start -10 -2) (end 10 -2)
    (stroke (width 0.5) (type solid)) (layer "In4.Cu") (tstamp 2143a25a-25e8-4e2e-9312-ce2f7400ce5a))
  (fp_line (start -10 0) (end 10 0)
    (stroke (width 0.5) (type solid)) (layer "In4.Cu") (tstamp 51aef7ea-783f-44d5-8cab-9faf10da9064))
  (fp_line (start -10 2) (end 10 2)
    (stroke (width 0.5) (type solid)) (layer "In4.Cu") (tstamp a1df41ee-57e8-4cf8-a863-aa2ac7fada82))
  (fp_line (start -10 -2) (end 10 -2)
    (stroke (width 0.5) (type solid)) (layer "In5.Cu") (tstamp 6bd7efd5-74f5-4b09-8bb7-5762073a2f78))
  (fp_line (start -10 0) (end 10 0)
    (stroke (width 0.5) (type solid)) (layer "In5.Cu") (tstamp 748d63ca-ef14-4e90-85ec-56619f2bea16))
  (fp_line (start -10 2) (end 10 2)
    (stroke (width 0.5) (type solid)) (layer "In5.Cu") (tstamp c41835e2-2b20-4f99-a85d-b1859480e6e6))
  (fp_line (start -10 -2) (end 10 -2)
    (stroke (width 0.5) (type solid)) (layer "In6.Cu") (tstamp 181135d6-242b-4baf-94b0-054802ef6df0))
  (fp_line (start -10 0) (end 10 0)
    (stroke (width 0.5) (type solid)) (layer "In6.Cu") (tstamp b75ad8c5-9f55-49ef-9af8-7ab1b11ab9d4))
  (fp_line (start -10 2) (end 10 2)
    (stroke (width 0.5) (type solid)) (layer "In6.Cu") (tstamp 245afab8-87c2-4797-af78-aa00d5229c94))
  (fp_line (start -10 -2) (end 10 -2)
    (stroke (width 0.5) (type solid)) (layer "In7.Cu") (tstamp 03f16627-7ce3-4e9a-9706-778678e98c1c))
  (fp_line (start -10 0) (end 10 0)
    (stroke (width 0.5) (type solid)) (layer "In7.Cu") (tstamp 665ff082-de8d-4434-bdea-5354e7d0b15e))
  (fp_line (start -10 2) (end 10 2)
    (stroke (width 0.5) (type solid)) (layer "In7.Cu") (tstamp 5ee97714-8ad8-47a4-bd70-3ebc8406c7b5))
  (fp_line (start -10 -2) (end 10 -2)
    (stroke (width 0.5) (type solid)) (layer "In8.Cu") (tstamp b1ef00bc-27fd-4f4a-a155-1b738e608b48))
  (fp_line (start -10 0) (end 10 0)
    (stroke (width 0.5) (type solid)) (layer "In8.Cu") (tstamp 7594fd2b-c5d9-4333-9f70-e53128d27c5a))
  (fp_line (start -10 2) (end 10 2)
    (stroke (width 0.5) (type solid)) (layer "In8.Cu") (tstamp 40f2d922-dc77-4165-a4ba-77aa54d0f1fa))
  (fp_line (start -10 -2) (end 10 -2)
    (stroke (width 0.5) (type solid)) (layer "In9.Cu") (tstamp 5e5cd445-0654-433f-a688-b9a23b9e5558))
  (fp_line (start -10 0) (end 10 0)
    (stroke (width 0.5) (type solid)) (layer "In9.Cu") (tstamp 3f787304-0f09-428f-9615-a178d53b5ed2))
  (fp_line (start -10 2) (end 10 2)
    (stroke (width 0.5) (type solid)) (layer "In9.Cu") (tstamp 7e97b323-0f13-4745-becc-fa60e39b31ab))
  (fp_line (start -10 -2) (end 10 -2)
    (stroke (width 0.5) (type solid)) (layer "In10.Cu") (tstamp 10e85d49-8c1d-4e38-920c-77246389daec))
  (fp_line (start -10 0) (end 10 0)
    (stroke (width 0.5) (type solid)) (layer "In10.Cu") (tstamp f603df29-ba7f-4366-8b24-7592d4086934))
  (fp_line (start -10 2) (end 10 2)
    (stroke (width 0.5) (type solid)) (layer "In10.Cu") (tstamp 5ed661fa-d25a-413c-8f9b-894484c176c8))
  (fp_line (start -10 -2) (end 10 -2)
    (stroke (width 0.5) (type solid)) (layer "In11.Cu") (tstamp 45005e12-36a9-4853-a83d-a87ffad800b4))
  (fp_line (start -10 0) (end 10 0)
    (stroke (width 0.5) (type solid)) (layer "In11.Cu") (tstamp 6d259b3b-196b-4e6b-acdf-fc3e09319776))
  (fp_line (start -10 2) (end 10 2)
    (stroke (width 0.5) (type solid)) (layer "In11.Cu") (tstamp c034fa22-c359-4a30-b345-2b159807ba6c))
  (fp_line (start -10 -2) (end 10 -2)
    (stroke (width 0.5) (type solid)) (layer "In12.Cu") (tstamp d1cf4093-87af-4b49-8879-3ac410551bfc))
  (fp_line (start -10 0) (end 10 0)
    (stroke (width 0.5) (type solid)) (layer "In12.Cu") (tstamp 7f093f1d-323b-4b4e-b33a-3f6815b22768))
  (fp_line (start -10 2) (end 10 2)
    (stroke (width 0.5) (type solid)) (layer "In12.Cu") (tstamp 21846961-2a78-4e46-8242-5b4de77ca82d))
  (fp_line (start -10 -2) (end 10 -2)
    (stroke (width 0.5) (type solid)) (layer "In13.Cu") (tstamp cca964ad-d64e-4c84-a05a-4b48498db544))
  (fp_line (start -10 0) (end 10 0)
    (stroke (width 0.5) (type solid)) (layer "In13.Cu") (tstamp bad86c5b-550c-459d-ae24-5ea963bd342c))
  (fp_line (start -10 2) (end 10 2)
    (stroke (width 0.5) (type solid)) (layer "In13.Cu") (tstamp 6b4ca676-3379-4b8d-a1e2-e3fc88dc7cd2))
  (fp_line (start -10 -2) (end 10 -2)
    (stroke (width 0.5) (type solid)) (layer "In14.Cu") (tstamp f90672d0-2ca8-4eaf-98ba-17042306fced))
  (fp_line (start -10 0) (end 10 0)
    (stroke (width 0.5) (type solid)) (layer "In14.Cu") (tstamp 3ae98a70-72b8-4d72-8f0c-ecef7b1ca6d6))
  (fp_line (start -10 2) (end 10 2)
    (stroke (width 0.5) (type solid)) (layer "In14.Cu") (tstamp 2097c02a-9419-426d-a010-cdecd44e7e36))
  (fp_line (start -10 -2) (end 10 -2)
    (stroke (width 0.5) (type solid)) (layer "In15.Cu") (tstamp ba033dd1-a5e2-4136-b71b-d0a1cef6fc1f))
  (fp_line (start -10 0) (end 10 0)
    (stroke (width 0.5) (type solid)) (layer "In15.Cu") (tstamp 16fbbcc3-471d-4df7-bd39-383fab759fde))
  (fp_line (start -10 2) (end 10 2)
    (stroke (width 0.5) (type solid)) (layer "In15.Cu") (tstamp a500369a-3292-46a6-8a64-7c1bf6098bda))
  (fp_line (start -10 -2) (end 10 -2)
    (stroke (width 0.5) (type solid)) (layer "In16.Cu") (tstamp 04f09747-54bd-4ccb-936d-3baa80652154))
  (fp_line (start -10 0) (end 10 0)
    (stroke (width 0.5) (type solid)) (layer "In16.Cu") (tstamp 066e1992-d763-4a9e-8986-82a289c6f7d3))
  (fp_line (start -10 2) (end 10 2)
    (stroke (width 0.5) (type solid)) (layer "In16.Cu") (tstamp 917dba0e-1b1e-4fc1-b97b-7105df526305))
  (fp_line (start -10 -2) (end 10 -2)
    (stroke (width 0.5) (type solid)) (layer "In17.Cu") (tstamp 09986a87-49c2-4491-b1b1-87dfad52ab95))
  (fp_line (start -10 0) (end 10 0)
    (stroke (width 0.5) (type solid)) (layer "In17.Cu") (tstamp 7af171ef-c1a8-4817-ac3c-eb72938c314e))
  (fp_line (start -10 2) (end 10 2)
    (stroke (width 0.5) (type solid)) (layer "In17.Cu") (tstamp c5c59683-c7c2-4b4e-928e-13e0f78a5fa5))
  (fp_line (start -10 -2) (end 10 -2)
    (stroke (width 0.5) (type solid)) (layer "In18.Cu") (tstamp 0339f2f9-1d07-4033-b6d0-c95452f524c6))
  (fp_line (start -10 0) (end 10 0)
    (stroke (width 0.5) (type solid)) (layer "In18.Cu") (tstamp 93ef09ab-58f4-40ee-8d2b-6370d66890c0))
  (fp_line (start -10 2) (end 10 2)
    (stroke (width 0.5) (type solid)) (layer "In18.Cu") (tstamp bdf0e688-b15d-45d8-a79c-81e4aaf38323))
  (fp_line (start -10 -2) (end 10 -2)
    (stroke (width 0.5) (type solid)) (layer "In19.Cu") (tstamp dd5d8675-d91a-46c9-a0f4-ca5bb7941f9f))
  (fp_line (start -10 0) (end 10 0)
    (stroke (width 0.5) (type solid)) (layer "In19.Cu") (tstamp d2f6c7ec-fb14-4c80-b507-e05e76c13bdf))
  (fp_line (start -10 2) (end 10 2)
    (stroke (width 0.5) (type solid)) (layer "In19.Cu") (tstamp 056f9cb3-715f-434f-b47c-815c372d9a5b))
  (fp_line (start -10 -2) (end 10 -2)
    (stroke (width 0.5) (type solid)) (layer "In20.Cu") (tstamp 7e60f163-8805-4bc8-82a5-453da20ba1a2))
  (fp_line (start -10 0) (end 10 0)
    (stroke (width 0.5) (type solid)) (layer "In20.Cu") (tstamp d51ba27b-8ed7-4eca-b0be-3ba1363dff58))
  (fp_line (start -10 2) (end 10 2)
    (stroke (width 0.5) (type solid)) (layer "In20.Cu") (tstamp dde2f451-a39d-4356-be48-b264625a1f92))
  (fp_line (start -10 -2) (end 10 -2)
    (stroke (width 0.5) (type solid)) (layer "In21.Cu") (tstamp 0f262423-d4d1-4f04-805d-93d3f5b41978))
  (fp_line (start -10 0) (end 10 0)
    (stroke (width 0.5) (type solid)) (layer "In21.Cu") (tstamp ea31f51c-3f0e-4e37-9fd4-9e1b1b7d7784))
  (fp_line (start -10 2) (end 10 2)
    (stroke (width 0.5) (type solid)) (layer "In21.Cu") (tstamp 6356fe97-06cd-4a4b-b2f2-2e98498da4a1))
  (fp_line (start -10 -2) (end 10 -2)
    (stroke (width 0.5) (type solid)) (layer "In22.Cu") (tstamp 5add257c-7316-4000-a2a3-e6a8c316ab9c))
  (fp_line (start -10 0) (end 10 0)
    (stroke (width 0.5) (type solid)) (layer "In22.Cu") (tstamp 0fa241a2-e684-4224-bccf-feed816795b0))
  (fp_line (start -10 2) (end 10 2)
    (stroke (width 0.5) (type solid)) (layer "In22.Cu") (tstamp f238640e-3401-420a-ac31-a433f268cbfc))
  (fp_line (start -10 -2) (end 10 -2)
    (stroke (width 0.5) (type solid)) (layer "In23.Cu") (tstamp c4a3c708-c9b1-415d-ade1-45ed1cc0c8de))
  (fp_line (start -10 0) (end 10 0)
    (stroke (width 0.5) (type solid)) (layer "In23.Cu") (tstamp 1dc423f3-1741-4cb4-aa3d-a702d125d769))
  (fp_line (start -10 2) (end 10 2)
    (stroke (width 0.5) (type solid)) (layer "In23.Cu") (tstamp 67ab6325-5225-42ee-86cc-5aee5e01efce))
  (fp_line (start -10 -2) (end 10 -2)
    (stroke (width 0.5) (type solid)) (layer "In24.Cu") (tstamp 135dc062-d77d-4089-9b0c-b888ac79f63d))
  (fp_line (start -10 0) (end 10 0)
    (stroke (width 0.5) (type solid)) (layer "In24.Cu") (tstamp 525775d5-0e6e-4c76-b5ab-199b2e54ac41))
  (fp_line (start -10 2) (end 10 2)
    (stroke (width 0.5) (type solid)) (layer "In24.Cu") (tstamp 716698ac-ed16-401e-958b-a147596def51))
  (fp_line (start -10 -2) (end 10 -2)
    (stroke (width 0.5) (type solid)) (layer "In25.Cu") (tstamp 2904c703-ae82-4d76-85d3-cfc7aa518669))
  (fp_line (start -10 0) (end 10 0)
    (stroke (width 0.5) (type solid)) (layer "In25.Cu") (tstamp c8b3bfbd-79b7-4863-9ae7-79b3f077a5ad))
  (fp_line (start -10 2) (end 10 2)
    (stroke (width 0.5) (type solid)) (layer "In25.Cu") (tstamp 43d030b0-c46c-4448-bc9e-987f12c7559d))
  (fp_line (start -10 -2) (end 10 -2)
    (stroke (width 0.5) (type solid)) (layer "In26.Cu") (tstamp 7b08b6d2-d7a0-45d0-95d4-d9dfb9198b27))
  (fp_line (start -10 0) (end 10 0)
    (stroke (width 0.5) (type solid)) (layer "In26.Cu") (tstamp 759bd0f6-2646-44e7-94e8-5efbb41acb61))
  (fp_line (start -10 2) (end 10 2)
    (stroke (width 0.5) (type solid)) (layer "In26.Cu") (tstamp 02bac189-ce88-4201-a986-e602f9553dc1))
  (fp_line (start -10 -2) (end 10 -2)
    (stroke (width 0.5) (type solid)) (layer "In27.Cu") (tstamp 7048b6de-9faa-47a1-99c5-b74e17a09a6e))
  (fp_line (start -10 0) (end 10 0)
    (stroke (width 0.5) (type solid)) (layer "In27.Cu") (tstamp eb15020f-39fa-457e-8bb2-2cd2948845ca))
  (fp_line (start -10 2) (end 10 2)
    (stroke (width 0.5) (type solid)) (layer "In27.Cu") (tstamp 45580b2c-f853-4bae-b48d-8b2b7a8c9649))
  (fp_line (start -10 -2) (end 10 -2)
    (stroke (width 0.5) (type solid)) (layer "In28.Cu") (tstamp 7af1455e-5ab2-4286-8c74-1c6dee563208))
  (fp_line (start -10 0) (end 10 0)
    (stroke (width 0.5) (type solid)) (layer "In28.Cu") (tstamp f7aa75c5-0bfb-4814-b8eb-5f8a9a128aa9))
  (fp_line (start -10 2) (end 10 2)
    (stroke (width 0.5) (type solid)) (layer "In28.Cu") (tstamp 3f473a8d-2328-4446-9e36-aaf72c0dfceb))
  (fp_line (start -10 -2) (end 10 -2)
    (stroke (width 0.5) (type solid)) (layer "In29.Cu") (tstamp f50237bb-f9c4-46da-b66f-024d10bb7b7e))
  (fp_line (start -10 0) (end 10 0)
    (stroke (width 0.5) (type solid)) (layer "In29.Cu") (tstamp 9dffc0da-762b-42b7-80b1-72a451bb294f))
  (fp_line (start -10 2) (end 10 2)
    (stroke (width 0.5) (type solid)) (layer "In29.Cu") (tstamp d9486185-1c1d-4547-bd7d-6cdded6e4187))
  (fp_line (start -10 -2) (end 10 -2)
    (stroke (width 0.5) (type solid)) (layer "In30.Cu") (tstamp 98e246fc-6637-419f-a1a8-e2b22f10addf))
  (fp_line (start -10 0) (end 10 0)
    (stroke (width 0.5) (type solid)) (layer "In30.Cu") (tstamp 5f10ab2e-0baa-42eb-b877-7c3c9e704ef3))
  (fp_line (start -10 2) (end 10 2)
    (stroke (width 0.5) (type solid)) (layer "In30.Cu") (tstamp fd04ef58-75d9-44e8-b553-d9bff716e067))
  (fp_line (start -10 -2) (end 10 -2)
    (stroke (width 0.5) (type solid)) (layer "B.Cu") (tstamp 6b24a7a2-717b-4448-a40d-7886a2ed3d71))
  (fp_line (start -10 0) (end 10 0)
    (stroke (width 0.5) (type solid)) (layer "B.Cu") (tstamp 775b50f1-c021-45e5-b4f4-3da4bfa305be))
  (fp_line (start -10 2) (end 10 2)
    (stroke (width 0.5) (type solid)) (layer "B.Cu") (tstamp ee19307b-ab88-4d6f-9dfb-4149660b5a08))
)
